{
    "threads": 4,
    "tries": 5,
    "queue_handler_timeout": 10,
    "logfile": "stdout",
    "logdb": {
        "sqlite": ":memory:"
    },
    "listeners": {
        "xmlrpc": {
            "service": "RPC",
            "port": 8010,
            "username": "billing",
            "password": "billing",
            "ssl": {
                "private-key": "/usr/share/hermesd/server.key",
                "ssl-certificate": "/usr/share/hermesd/server.crt"
            }
        },
        "amqp": {
            "host": "localhost",
            "port": 5672,
            "username": "guest",
            "password": "guest",
            "spec": "amqp0-8.xml",
            "vhost": "hermes",
            "queue": "messenger"
        }
    },
    "senders": {
        "email1": {
            "type": "plain",
            "host": "localhost",
            "email": "saber@sas.dev"
        },
        "email2": {
            "type": "mime",
            "host": "localhost",
            "email": "testing@sas.dev"
        },
        "jabber1": {
            "type": "jabber",
            "host": "jabber.brocompany.net",
            "port": 5222,
            "username": "aleksandr.stepkin@jabber.brocompany.net/robot",
            "password": "****",
            "keep_alive_timeout": 180
        },
        "icq1": {
            "type": "icq",
            "host": "login.icq.com",
            "port": 5238,
            "username": "****",
            "password": "****",
            "disabled": 1
        },
        "sms1": {
            "type": "sms",
            "host": "smpp.smslab.ru",
            "port": 2775,
            "username": "Broco",
            "password": "****",
            "source_address": "Broco",
            "disabled": 1
        }
    }
}
